Date ;ID dossier ;Vendeur ;Nom client ;TO ;Ville Destination ;Ville départ ;Date de départ ;Date de retour ;Montant ;Montant Achat ;Assurances ;
01/09/15 ;1221;Roxana;MIHOUB;Look voyages;Boa vista;Paris;2015-09-18;2015-10-02;1753;1589.10;0;
Date ;ID dossier ;Vendeur ;Nom client ;TO ;Ville Destination ;Ville départ ;Date de départ ;Date de retour ;Montant ;Montant Achat ;Assurances ;
02/09/15 ;1222;Roxana;NEVEU;Suntrade Travel;Dxb;Par;2015-09-07;2015-09-13;1292.17;1185.42;0;
Date ;ID dossier ;Vendeur ;Nom client ;TO ;Ville Destination ;Ville départ ;Date de départ ;Date de retour ;Montant ;Montant Achat ;Assurances ;
03/09/15 ;1225;Roxana;GABRIEL;Capitales Tours;Yto;Par;2015-09-22;2015-10-03;3503.38;3141.94;50;
Date ;ID dossier ;Vendeur ;Nom client ;TO ;Ville Destination ;Ville départ ;Date de départ ;Date de retour ;Montant ;Montant Achat ;Assurances ;
04/09/15 ;1231;Roxana;HARKAT;Heliades;Sid;Par;2015-09-07;2015-09-14;872.74;824.22;0;
Date ;ID dossier ;Vendeur ;Nom client ;TO ;Ville Destination ;Ville départ ;Date de départ ;Date de retour ;Montant ;Montant Achat ;Assurances ;
08/09/15 ;1233;Roxana;LAMBERT;FTI;Ssh;Str;2015-09-19;2015-09-26;1188;1079.20;0;
Date ;ID dossier ;Vendeur ;Nom client ;TO ;Ville Destination ;Ville départ ;Date de départ ;Date de retour ;Montant ;Montant Achat ;Assurances ;
09/09/15 ;1234;Roxana;MULOT;Travel Evasion;Marsa alam;Paris;2015-09-12;2015-09-26;1624.05;1449.14;20;
Date ;ID dossier ;Vendeur ;Nom client ;TO ;Ville Destination ;Ville départ ;Date de départ ;Date de retour ;Montant ;Montant Achat ;Assurances ;
Date ;ID dossier ;Vendeur ;Nom client ;TO ;Ville Destination ;Ville départ ;Date de départ ;Date de retour ;Montant ;Montant Achat ;Assurances ;
Date ;ID dossier ;Vendeur ;Nom client ;TO ;Ville Destination ;Ville départ ;Date de départ ;Date de retour ;Montant ;Montant Achat ;Assurances ;
14/09/15 ;1238;Roxana;COHEN PAUL;Voyamar;Tel aviv;Marseille;2015-11-08;2015-11-15;21344;19714.40;80;
14/09/15 ;1239;Roxana;EKMAN;Capitales Tours;Jnb;Bsl;2015-11-07;2015-11-17;3302.18;3110.34;0;
Date ;ID dossier ;Vendeur ;Nom client ;TO ;Ville Destination ;Ville départ ;Date de départ ;Date de retour ;Montant ;Montant Achat ;Assurances ;
15/09/15 ;1242;Roxana;SCHOETTEL;Française des circuits;Lpq;Par;2015-10-08;2015-10-23;2549.4;2327.20;0;
Date ;ID dossier ;Vendeur ;Nom client ;TO ;Ville Destination ;Ville départ ;Date de départ ;Date de retour ;Montant ;Montant Achat ;Assurances ;
16/09/15 ;1247;Roxana;PEYRAT;FTI;Hrg;Par;2015-10-17;2015-10-28;1140;1031.00;0;
16/09/15 ;1248;Houda;LUNGU;Voyamar;Los angeles;Nice;2015-09-18;2015-09-28;2401.64;2125.70;25;
Date ;ID dossier ;Vendeur ;Nom client ;TO ;Ville Destination ;Ville départ ;Date de départ ;Date de retour ;Montant ;Montant Achat ;Assurances ;
Date ;ID dossier ;Vendeur ;Nom client ;TO ;Ville Destination ;Ville départ ;Date de départ ;Date de retour ;Montant ;Montant Achat ;Assurances ;
Date ;ID dossier ;Vendeur ;Nom client ;TO ;Ville Destination ;Ville départ ;Date de départ ;Date de retour ;Montant ;Montant Achat ;Assurances ;
Date ;ID dossier ;Vendeur ;Nom client ;TO ;Ville Destination ;Ville départ ;Date de départ ;Date de retour ;Montant ;Montant Achat ;Assurances ;
23/09/15 ;1255;Roxana;DELL ISOLA;Voyamar;Amm;Par;2015-10-17;2015-10-24;1712.56;1493.35;25;
23/09/15 ;1256;Roxana;GALOPPIER;FTI;Puj;Lys;2015-10-07;2015-10-22;3200;2803.40;40;
Date ;ID dossier ;Vendeur ;Nom client ;TO ;Ville Destination ;Ville départ ;Date de départ ;Date de retour ;Montant ;Montant Achat ;Assurances ;
24/09/15 ;1258;Roxana;DELELIGNE EP. DUBREU;FTI;Ssh;Bru;2015-10-11;2015-10-19;1488;1349.20;0;
24/09/15 ;1259;Roxana;GOMES;Capitales Tours;Lim;Bod;2015-11-06;2015-11-16;4490.12;4063.56;50;
24/09/15 ;1260;Roxana;HITTINGER;Capitales Tours;Lim;Lys;2015-11-20;2015-12-03;5655.22;5243.86;0;
Date ;ID dossier ;Vendeur ;Nom client ;TO ;Ville Destination ;Ville départ ;Date de départ ;Date de retour ;Montant ;Montant Achat ;Assurances ;
25/09/15 ;1261;Roxana;ABBADI;Heliades;Bvc;Par;2015-09-28;2015-10-05;1571.04;1485.32;0;
25/09/15 ;1262;Roxana;GONON;Française des circuits;Tyo;Lys;2015-10-23;2015-11-02;3176.8;2936.95;0;
Date ;ID dossier ;Vendeur ;Nom client ;TO ;Ville Destination ;Ville départ ;Date de départ ;Date de retour ;Montant ;Montant Achat ;Assurances ;
28/09/15 ;1263;Roxana;HAMNOU;FTI;Rmf;Bru;2015-10-02;2015-10-09;1174;1066.60;0;
Date ;ID dossier ;Vendeur ;Nom client ;TO ;Ville Destination ;Ville départ ;Date de départ ;Date de retour ;Montant ;Montant Achat ;Assurances ;
29/09/15 ;1264;Houda;CHANAL;Fram;Paphos;Lyon;2015-11-08;2015-11-15;3076.64;2709.73;0;
Date ;ID dossier ;Vendeur ;Nom client ;TO ;Ville Destination ;Ville départ ;Date de départ ;Date de retour ;Montant ;Montant Achat ;Assurances ;
30/09/15 ;1266;Houda;MHAMDI;Capitales Tours;New delhi;Paris;2015-11-29;2015-12-10;2269.18;2133.34;0;
