Date ;ID dossier ;Vendeur ;Nom client ;TO ;Ville Destination ;Ville départ ;Date de départ ;Date de retour ;Montant ;Montant Achat ;Assurances ;
04/01/16 ;1362;Roxana;GOUZOU;Française des circuits;Mdl;Par;2016-02-08;2016-02-19;4650.4;4179.60;0;
04/01/16 ;1363;Roxana;BORIES;Climat du monde;Del;Tls;2016-09-05;2016-09-13;1832.32;1670.80;26;
04/01/16 ;1364;Roxana;ERIPRET;Climat du monde;Del;Par;2016-09-05;2016-09-13;1554.32;1488.80;0;
04/01/16 ;1365;Roxana;FRAGNE;Française des circuits;Sgn;Par;2016-02-23;2016-03-04;2896;2580.50;40;
04/01/16 ;1366;Roxana;GIOVANNANGELI;Capitales Tours;Lax;Par;2016-03-17;2016-03-31;2297.38;2127.94;0;
04/01/16 ;1367;Ecall;HENON;Climat du monde;Del;Par;2016-09-05;2016-09-13;1554.32;1488.80;0;
Date ;ID dossier ;Vendeur ;Nom client ;TO ;Ville Destination ;Ville départ ;Date de départ ;Date de retour ;Montant ;Montant Achat ;Assurances ;
05/01/16 ;1368;Ecall;BASTIDE;Exotismes;Sdq;Par;2016-01-30;2016-02-07;3023.75;2811.20;40;
05/01/16 ;1370;Houda;JEAN;Capitales Tours;Hanoi;Par;2016-01-24;2016-02-07;3803.34;3541.42;0;
05/01/16 ;1371;Roxana;LEITAO AUGUSTO;Capitales Tours;Sjo;Par;2016-03-12;2016-03-21;4157.08;3854.04;0;
Date ;ID dossier ;Vendeur ;Nom client ;TO ;Ville Destination ;Ville départ ;Date de départ ;Date de retour ;Montant ;Montant Achat ;Assurances ;
06/01/16 ;1372;Roxana;BOUCLIER;Jet Tours;Ptp;Par;2016-01-30;2016-02-07;3501.12;3184.70;0;
06/01/16 ;1373;Roxana;SALORD;Capitales Tours;Jnb;Nce;2016-02-06;2016-02-16;1785.18;1617.34;25;
Date ;ID dossier ;Vendeur ;Nom client ;TO ;Ville Destination ;Ville départ ;Date de départ ;Date de retour ;Montant ;Montant Achat ;Assurances ;
07/01/16 ;1374;Roxana;LAGABRIELLE;Française des circuits;Buenos aires;Paris;2016-04-01;2016-04-14;10430.4;9164.90;0;
Date ;ID dossier ;Vendeur ;Nom client ;TO ;Ville Destination ;Ville départ ;Date de départ ;Date de retour ;Montant ;Montant Achat ;Assurances ;
08/01/16 ;1375;Ecall;DESTINE;Capitales Tours;Del;Par;2016-04-03;2016-04-14;2155.98;2029.74;0;
08/01/16 ;1376;Ecall;GEOFFROY;Climat du monde;Del;Mrs;2016-09-05;2016-09-13;1904.32;1798.30;0;
08/01/16 ;1377;Roxana;GOUEDARD EP BOSCHAT;Climat du monde;Han;Par;2016-05-11;2016-05-25;2861.52;2576.80;40;
08/01/16 ;1378;Roxana;SISTI;Megavacances;Pop;Par;2016-01-11;2016-01-19;2404;2268.34;0;
Date ;ID dossier ;Vendeur ;Nom client ;TO ;Ville Destination ;Ville départ ;Date de départ ;Date de retour ;Montant ;Montant Achat ;Assurances ;
11/01/16 ;1379;Houda;BLANCHARD;Exotismes;St domingue;Paris;2016-02-20;2016-02-28;4890.2;4753.20;0;
Date ;ID dossier ;Vendeur ;Nom client ;TO ;Ville Destination ;Ville départ ;Date de départ ;Date de retour ;Montant ;Montant Achat ;Assurances ;
12/01/16 ;1380;Roxana;VARENNE;Française des circuits;Lax;Mrs;2016-02-13;2016-02-23;3459.2;3047.40;50;
12/01/16 ;1382;Roxana;LE BLAY;Visiteurs;Cmb;Par;2016-02-24;2016-03-04;3066.56;2807.36;0;
Date ;ID dossier ;Vendeur ;Nom client ;TO ;Ville Destination ;Ville départ ;Date de départ ;Date de retour ;Montant ;Montant Achat ;Assurances ;
13/01/16 ;1383;Ecall;PISTRE;Voyamar;Cmb;Tls;2016-03-07;2016-03-17;2823.36;2503.10;40;
13/01/16 ;1384;Roxana;VANDERESSE;Capitales Tours;Jnb;Par;2016-02-20;2016-03-01;2969.58;2664.74;40;
Date ;ID dossier ;Vendeur ;Nom client ;TO ;Ville Destination ;Ville départ ;Date de départ ;Date de retour ;Montant ;Montant Achat ;Assurances ;
14/01/16 ;1385;Roxana;RAYMOND;Française des circuits;Ika;Bod;2016-05-08;2016-05-19;4267.2;3876.20;0;
Date ;ID dossier ;Vendeur ;Nom client ;TO ;Ville Destination ;Ville départ ;Date de départ ;Date de retour ;Montant ;Montant Achat ;Assurances ;
15/01/16 ;1387;Roxana;DEGRAEVE;Jet Tours;Mle;Par;2016-01-22;2016-01-31;4394.32;3987.92;0;
15/01/16 ;1388;Roxana;TORCHOT;Française des circuits;Lax;Par;2016-09-09;2016-09-19;3291.2;2947.80;40;
15/01/16 ;1389;Ecall;GASNIER;Capitales Tours;Jnb;Nte;2016-04-05;2016-04-15;3060.18;2854.54;0;
15/01/16 ;1390;Houda;ROCHE;Kuoni;Le caire;Paris;2016-02-17;2016-02-27;2929.2;2731.00;0;
15/01/16 ;1391;Roxana;VIVIEN;Française des circuits;Cmb;Par;2016-02-07;2016-02-19;3840.4;3396.20;50;
Date ;ID dossier ;Vendeur ;Nom client ;TO ;Ville Destination ;Ville départ ;Date de départ ;Date de retour ;Montant ;Montant Achat ;Assurances ;
18/01/16 ;1392;Roxana;DUBOIS;Capitales Tours;Jnb;Lys;2016-10-31;2016-11-10;3000.38;2705.14;40;
18/01/16 ;1393;Ecall;COSTARDI;Capitales Tours;Mex;Lys;2016-02-14;2016-02-25;3317.18;3085.34;0;
18/01/16 ;1394;Roxana;TEMPLER;Climat du monde;Del;Par;2016-09-05;2016-09-13;1554.32;1488.80;0;
18/01/16 ;1395;Roxana;FRANDON;Française des circuits;Ika;Par;2016-04-17;2016-04-28;4211.2;3749.30;50;
18/01/16 ;1396;Roxana;MORENO;Visiteurs;Osa;Par;2016-06-10;2016-06-20;5290.5;4805.50;0;
Date ;ID dossier ;Vendeur ;Nom client ;TO ;Ville Destination ;Ville départ ;Date de départ ;Date de retour ;Montant ;Montant Achat ;Assurances ;
19/01/16 ;1397;Roxana;GILLI;Capitales Tours;Jnb;Mrs;2016-10-31;2016-11-10;2996.56;2705.14;40;
19/01/16 ;1398;Roxana;MOUZET;Capitales Tours;Jnb;Par;2016-11-14;2016-11-24;2776.56;2565.14;0;
Date ;ID dossier ;Vendeur ;Nom client ;TO ;Ville Destination ;Ville départ ;Date de départ ;Date de retour ;Montant ;Montant Achat ;Assurances ;
20/01/16 ;1399;Roxana;DEFREL;Capitales Tours;Jnb;Par;2016-12-05;2016-12-15;2776.56;2565.14;0;
20/01/16 ;1400;Roxana;GASPARINI;Capitales Tours;Jnb;Par;2016-10-31;2016-11-10;2880.56;2565.14;40;
20/01/16 ;1401;Roxana;HAVET;Capitales Tours;Jnb;Par;2016-11-28;2016-12-08;2776.56;2565.14;0;
20/01/16 ;1402;Roxana;PLUMEY;Capitales Tours;Jnb;Lys;2016-10-31;2016-11-10;2916.56;2705.14;0;
20/01/16 ;1403;Roxana;CORNILLET;Française des circuits;Delhi;Paris;2016-03-15;2016-03-26;2575.2;2369.20;0;
Date ;ID dossier ;Vendeur ;Nom client ;TO ;Ville Destination ;Ville départ ;Date de départ ;Date de retour ;Montant ;Montant Achat ;Assurances ;
22/01/16 ;1405;Roxana;AMEDJOUT;Capitales Tours;Lax;Mrs;2016-05-12;2016-05-25;2330.96;2148.14;0;
22/01/16 ;1406;Houda;CAPELLE;Française des circuits;New delhi;Prs;2016-02-25;2016-03-10;3656;3351.00;0;
Date ;ID dossier ;Vendeur ;Nom client ;TO ;Ville Destination ;Ville départ ;Date de départ ;Date de retour ;Montant ;Montant Achat ;Assurances ;
25/01/16 ;1407;Roxana;DECOTE;Française des circuits;Srg;Par;2016-04-17;2016-04-27;2363.2;2118.30;25;
25/01/16 ;1408;Houda;VIGUET-CARRIN;Française des circuits;Hanoi;Paris;2016-03-29;2016-04-11;7292;6180.00;100;
25/01/16 ;1409;Roxana;CUNHA;Capitales Tours;Lim;Par;2016-06-10;2016-06-20;2478.56;2276.69;0;
Date ;ID dossier ;Vendeur ;Nom client ;TO ;Ville Destination ;Ville départ ;Date de départ ;Date de retour ;Montant ;Montant Achat ;Assurances ;
26/01/16 ;1410;Roxana;GRAUFOGEL;Capitales Tours;Jnb;Bod;2016-12-05;2016-12-15;2996.56;2705.14;40;
26/01/16 ;1411;Roxana;HOUHA;Jet Tours;Dkr;Mrs;2016-02-09;2016-02-23;1908.98;1670.75;25;
Date ;ID dossier ;Vendeur ;Nom client ;TO ;Ville Destination ;Ville départ ;Date de départ ;Date de retour ;Montant ;Montant Achat ;Assurances ;
27/01/16 ;1413;Houda;HUON;Visiteurs;Pekin;Lille;2016-02-15;2016-03-04;2285.57;2080.67;0;
Date ;ID dossier ;Vendeur ;Nom client ;TO ;Ville Destination ;Ville départ ;Date de départ ;Date de retour ;Montant ;Montant Achat ;Assurances ;
29/01/16 ;1425;Roxana;PASQUIER;Française des circuits;Maa;Par;2016-04-20;2016-05-02;3108;2869.50;0;
29/01/16 ;1426;Roxana;JEGOU;Capitales Tours;Lax;Par;2016-10-16;2016-10-29;3456.56;3195.14;0;
29/01/16 ;1427;Roxana;FAUX;Française des circuits;Cai;Tls;2016-04-06;2016-04-20;2730.6;2501.80;0;
