Date ;ID dossier ;TO ;Ref facture TO ;Client ;Départ ;Montant ;Montant achat ;Assur ;Marge ; 
03/03/14;617;FTI;60809892;POLLEFOORT;2014-08-16;5928;5365.20;0;562.8;
05/03/14;655;FTI;60810114;COUSTES;2014-05-10;1616;1464.40;0;151.6;
05/03/14;656;Capitales Tours;1402979;DUFOUR;2014-05-31;2818;2562.94;0;255.06;
10/03/14;658;FTI;60810544;MARCHAL;2014-03-28;2282;2063.80;0;218.2;
10/03/14;659;Promosejour;24030897;KHOUMAME;2014-06-10;3908.8;3514.20;50;344.6;
10/03/14;661;Travel Evasion;133267;MOYNE;2014-04-26;3919;3594.16;0;324.84;
10/03/14;662;Française des circuits;125716;JUNG;2014-03-22;1843;1671.40;0;171.6;
11/03/14;663;FTI;60810628;BERTRAND;2014-03-30;2002;1811.80;0;190.2;
11/03/14;664;Sunshine Vacances;F-11064;HUBAUT;2014-04-13;658;593.60;0;64.4;
11/03/14;665;Travel Evasion;133279;DELPHIN;2014-09-20;4191;3840.56;0;350.44;
12/03/14;667;Partir en Israel;58079;KATZ;2014-04-07;2693;2445.36;0;247.64;
12/03/14;668;Capitales Tours;1403158;LARDEAU;2014-05-06;5432.01;5065.63;0;366.38;
12/03/14;669;Française des circuits;125781;TOUTAIN;2014-04-27;2528.8;2336.20;0;192.6;
13/03/14;671;Voyamar;167708;HAGEMANN;2014-04-27;1125;1026.29;0;98.71;
13/03/14;672;FTI;60810913;SCHMITT;2014-05-26;2158;2158.00;0;0;
17/03/14;674;Capitales Tours;1403256;MARIENSTRAS;2014-08-23;2497.76;2145.74;32;320.02;
18/03/14;675;Française des circuits;036681;GOUNON;2014-05-18;1860;1460.80;0;399.2;
19/03/14;676;Fram;293493;GUIMBERTEAU;2014-07-05;1991.35;1767.72;13;210.63;
20/03/14;678;Suntrade Travel;ST140664;YKRELEF;2014-06-27;3567.14;3328.76;0;238.38;
24/03/14;680;Française des circuits;036646;RAMBAUD;2014-05-11;2618.96;2417.54;0;201.42;
24/03/14;681;Française des circuits;036645;BOUAYSS;2014-05-18;2528.8;2336.20;0;192.6;
24/03/14;683;FTI;60811722;LEMOIGNE;2014-05-10;990;896.00;0;94;
24/03/14;684;Française des circuits;125965;LERUSSE;2014-04-26;1895.4;1704.60;16;174.8;
25/03/14;685;FTI;60811904;BESNARD;2014-08-08;1670;1513.00;0;157;
26/03/14;688;FTI;60811905;DELHAISE;2014-05-10;990;896.00;0;94;
26/03/14;689;Kuoni;2086099;MONTEIL;2014-05-11;4388;4130.00;0;258;
31/03/14;691;Promosejour;;GONCALVES;2014-04-25;2650;2500.20;0;149.8;
31/03/14;692;FTI;60812340;BASTIEN;2014-05-03;1644;1494.60;0;149.4;
31/03/14;694;Sunshine Vacances;F-11154;ERRECARTE;2014-04-13;778;645.20;20;112.8;
