Date ;ID dossier ;TO ;Ref facture TO ;Client ;Départ ;Montant ;Montant achat ;Assur ;Marge ; 
01/02/16;1429;Capitales Tours;1601844;LE FUR;2016-08-04;4655.76;4293.24;0;362.52;
01/02/16;1433;Capitales Tours;1601877;PRUVOST;2016-04-17;3534.56;3252.14;0;282.42;
01/02/16;1434;Capitales Tours;1601885;HERRARD;2016-02-28;3675.28;3265.22;50;360.06;
01/02/16;1435;Capitales Tours;1601884;HONORINE;2016-04-17;3662.56;3252.14;50;360.42;
01/02/16;1436;Visiteurs;047336;HEDE;2016-05-17;3578.9;3201.90;50;327;
02/02/16;1437;Capitales Tours;1601890;DEFOUR;2016-05-15;3872.88;3574.62;0;298.26;
02/02/16;1438;Promosejour;4330;DONOSO GONZALEZ;2016-04-03;2551.7;2387.00;0;164.7;
02/02/16;1439;Voyamar;210497;BADILA;2016-12-22;3402;3109.30;50;242.7;
02/02/16;1440;Capitales Tours;1601924;PANOMKHAT;2016-03-19;2495.92;2268.58;0;227.34;
03/02/16;1441;Voyamar;210475;MARCHETTO;2016-06-30;1699;1588.65;0;110.35;
03/02/16;1442;Capitales Tours;1601942 et 1602007;DARENNE;2016-04-17;2708;2234.80;0;473.2;
04/02/16;1445;Plein Vent;681606;SOURDAIS BELLAKHDAR;2016-05-20;2063.24;1889.44;0;173.8;
04/02/16;1448;Française des circuits;047251;RONDET;2016-11-03;4211.2;3638.00;50;523.2;
04/02/16;1449;Fram;714246;MAZZUCCHETTI;2016-05-13;2095.38;130.50;0;1964.88;
05/02/16;1447;Française des circuits;047292;TAMBURRINI;2016-03-28;2808.4;2556.40;0;252;
05/02/16;1450;FTI;60852858;BLOCH;2016-02-28;1252;1102.25;0;149.75;
05/02/16;1452;Capitales Tours;1602016;SALORD;2016-05-22;3534.56;3252.14;0;282.42;
08/02/16;1453;FTI;60853209;BENSAID;2016-03-02;1248;1098.80;0;149.2;
08/02/16;1454;Française des circuits;135978;PALUMBO;2016-08-07;6933.6;6300.60;0;633;
08/02/16;1455;Française des circuits;047320;MARTINEZ;2016-06-01;1842.4;1684.60;0;157.8;
08/02/16;1458;Visiteurs;047598;LACOMBE;2016-06-20;5087.1;4623.10;0;464;
17/02/16;1464;Française des circuits;050741;CANET;2016-11-07;3824.3;3327.30;50;447;
18/02/16;1466;Capitales Tours;1602358;CLAVERIE;2016-09-09;2385.16;2147.34;25;212.82;
19/02/16;1467;Française des circuits;047713;JOURDAN;2016-05-12;4267.2;3798.00;0;469.2;
19/02/16;1468;Heliades;736732;BACHELOT;2016-03-06;2268.22;2032.65;32;203.57;
19/02/16;1471;Fram;7027495;RIGOULET;2016-11-12;2373;2058.05;0;314.95;
22/02/16;1470;Capitales Tours;1602402//1603217;BENEFORTI;2016-05-15;3752.56;3331.94;50;370.62;
22/02/16;1473;Voyamar;213280;DELFOUR;2016-03-10;374;339.42;0;34.58;
22/02/16;1474;Française des circuits;136420;BOURDEAUD'HUI;2016-04-18;3187.2;2921.20;0;266;
22/02/16;1475;Française des circuits;136399;FARGHEON;2016-03-30;1104;984.00;0;120;
25/02/16;1477;Capitales Tours;1602516;PRAT;2016-05-06;4207.76;3792.74;50;365.02;
25/02/16;1478;Capitales Tours;1602500;BACQUET;2016-10-04;4024.96;3582.54;50;392.42;
25/02/16;1480;Climat du monde;049215;RAMORA;2016-06-03;2078;1896.80;0;181.2;
25/02/16;1481;Capitales Tours;1602514;SAHALA;2016-09-08;4691.52;4366.48;0;325.04;
26/02/16;1482;Climat du monde;049240;PHILIPPON;2016-06-17;1083;273.27;16;793.73;
26/02/16;1483;Mondial Tourisme;012-011605;SADIK;2016-03-14;1098;1010.20;0;87.8;
29/02/16;1484;;;CHAPONIC;2016-05-08;3337;3184.50;0;152.5;
