Date ;ID dossier ;Nom client ;Montant du payement ;Moyen de réglement ;
04/08/15 ;1181;PASOLLI;2128.00;CB_internet_BP;
05/08/15 ;1182;MAKHLOUF;705.50;CB_internet_BP;
05/08/15 ;1184;MENARD;691.32;CB_internet_BP;
06/08/15 ;1118;ALESINA;3837.68;CB_internet_BP;
06/08/15 ;1182;MAKHLOUF;2116.50;CB_internet_BP;
06/08/15 ;1185;RAMBAUD;506.84;CB_internet_BP;
06/08/15 ;1185;RAMBAUD;506.83;CB_internet_BP;
06/08/15 ;1186;MARTY;150.30;CB_internet_BP;
07/08/15 ;1133;DROUOT;2312.74;CB_internet_BP;
10/08/15 ;1133;DROUOT;370.00;Chèque vacances;
10/08/15 ;1133;DROUOT;-358.90;CB_internet_BP;
11/08/15 ;1190;GROS;1605.12;CB_internet_BP;
11/08/15 ;1191;SGHAIER;900.00;CB_internet_BP;
11/08/15 ;1192;BOULEMAIZET;1000.00;CB_internet_BP;
11/08/15 ;1192;BOULEMAIZET;1713.90;CB_internet_BP;
12/08/15 ;1189;DESCAMPS;4400.00;CB_internet_BP;
12/08/15 ;1192;BOULEMAIZET;1277.00;CB_internet_BP;
14/08/15 ;1191;SGHAIER;-14.00;CB_internet_BP;
17/08/15 ;1166;POGU;2593.92;CB_internet_BP;
17/08/15 ;1170;DESPLANQUE;1200.00;CB_internet_BP;
18/08/15 ;1166;POGU;200.00;CB_internet_BP;
18/08/15 ;1170;DESPLANQUE;1265.65;CB_internet_BP;
24/08/15 ;1202;MAURIN;1478.00;CB_internet_BP;
25/08/15 ;1203;ZAIDA;819.00;CB_internet_BP;
25/08/15 ;1203;ZAIDA;351.00;CB_internet_BP;
25/08/15 ;1208;YATABERE;2515.00;Espèces;
25/08/15 ;1210;BAUDET;1090.00;CB_internet_BP;
26/08/15 ;1055;DAGNICOURT;-60.00;Chèque;
26/08/15 ;1144;SCHWEIZER;1398.60;CB_internet_BP;
31/08/15 ;1125;ALEM;1668.38;Chèque;
31/08/15 ;1125;ALEM;720.00;Chèque vacances;
31/08/15 ;1217;FOURMY;718.31;CB_internet_BP;
