Date ;ID dossier ;Vendeur ;Nom client ;TO ;Ville Destination ;Ville départ ;Date de départ ;Date de retour ;Montant ;Montant Achat ;Assurances ;
01/07/13 ;362;Roxana;WEIBEL;Fram;Fnc;Nte;2013-07-06;2013-07-13;1516;1432.39;0;
01/07/13 ;364;Roxana;MIANO;Promosejour;Paphos;Paris;2013-07-10;2013-07-24;2853;2548.20;40;
01/07/13 ;365;Roxana;BRISSON;Fram;Palma de majorque;Nantes;2013-07-20;2013-07-27;1409.8;1272.50;30;
01/07/13 ;367;Roxana;THIERY;Fram;Palerme;Metz;2013-07-26;2013-08-02;3719;3202.83;48;
Date ;ID dossier ;Vendeur ;Nom client ;TO ;Ville Destination ;Ville départ ;Date de départ ;Date de retour ;Montant ;Montant Achat ;Assurances ;
02/07/13 ;373;Roxana;ISTVAN;visiteurope;Madere;Paris;2013-08-12;2013-08-19;1516;1452.40;0;
Date ;ID dossier ;Vendeur ;Nom client ;TO ;Ville Destination ;Ville départ ;Date de départ ;Date de retour ;Montant ;Montant Achat ;Assurances ;
05/07/13 ;375;Natacha;REZGANE;Voyamar;Palma de majorque;Marseille;2013-09-07;2013-09-14;927;812.90;13;
Date ;ID dossier ;Vendeur ;Nom client ;TO ;Ville Destination ;Ville départ ;Date de départ ;Date de retour ;Montant ;Montant Achat ;Assurances ;
Date ;ID dossier ;Vendeur ;Nom client ;TO ;Ville Destination ;Ville départ ;Date de départ ;Date de retour ;Montant ;Montant Achat ;Assurances ;
09/07/13 ;378;Natacha;GROSJEAN;Voyamar;Kos;Marseille;2013-08-25;2013-09-01;2523;2238.50;32;
Date ;ID dossier ;Vendeur ;Nom client ;TO ;Ville Destination ;Ville départ ;Date de départ ;Date de retour ;Montant ;Montant Achat ;Assurances ;
10/07/13 ;380;Roxana;HAUVEL;Plein Vent;Palma de majorque;Paris;2013-08-03;2013-08-10;1218;1030.38;16;
Date ;ID dossier ;Vendeur ;Nom client ;TO ;Ville Destination ;Ville départ ;Date de départ ;Date de retour ;Montant ;Montant Achat ;Assurances ;
18/07/13 ;383;Sandra;ROGER;Voyamar;Heraklion;Paris;2013-09-16;2013-09-23;1490;1369.00;0;
