Date ;ID dossier ;Vendeur ;Nom client ;TO ;Ville Destination ;Ville départ ;Date de départ ;Date de retour ;Montant ;Montant Achat ;Assurances ;
01/02/16 ;1428;Roxana;LOUAIL;Jet Tours;Fao;Nte;2016-04-17;2016-04-24;1475.88;1338.96;0;
01/02/16 ;1430;Roxana;BESTEL;FTI;Ayt;Fra;2016-04-09;2016-04-16;1217;1076.35;0;
01/02/16 ;1431;Roxana;ARMANINI;FTI;Ayt;Fra;2016-04-09;2016-04-16;1217;1076.35;0;
Date ;ID dossier ;Vendeur ;Nom client ;TO ;Ville Destination ;Ville départ ;Date de départ ;Date de retour ;Montant ;Montant Achat ;Assurances ;
Date ;ID dossier ;Vendeur ;Nom client ;TO ;Ville Destination ;Ville départ ;Date de départ ;Date de retour ;Montant ;Montant Achat ;Assurances ;
03/02/16 ;1443;Roxana;SECARDIN;Plein Vent;Lpa;Nte;2016-03-12;2016-03-20;964.04;892.20;0;
Date ;ID dossier ;Vendeur ;Nom client ;TO ;Ville Destination ;Ville départ ;Date de départ ;Date de retour ;Montant ;Montant Achat ;Assurances ;
04/02/16 ;1446;Roxana;QUARANTA;VAT;Dub;Nce;2016-04-28;2016-05-05;2186.86;1927.33;32;
Date ;ID dossier ;Vendeur ;Nom client ;TO ;Ville Destination ;Ville départ ;Date de départ ;Date de retour ;Montant ;Montant Achat ;Assurances ;
Date ;ID dossier ;Vendeur ;Nom client ;TO ;Ville Destination ;Ville départ ;Date de départ ;Date de retour ;Montant ;Montant Achat ;Assurances ;
08/02/16 ;1456;Houda;GAVRILA;;Rome;Paris;2016-03-31;2016-04-03;166.24;166.24;0;
08/02/16 ;1457;Houda;GAVRILA;;Faro;Paris;2016-07-17;2016-07-31;1194.4;1194.40;0;
Date ;ID dossier ;Vendeur ;Nom client ;TO ;Ville Destination ;Ville départ ;Date de départ ;Date de retour ;Montant ;Montant Achat ;Assurances ;
17/02/16 ;1465;Roxana;ROCHETTE;Capitales Tours;Osl;Par;2016-08-13;2016-08-20;1500.36;1356.74;0;
Date ;ID dossier ;Vendeur ;Nom client ;TO ;Ville Destination ;Ville départ ;Date de départ ;Date de retour ;Montant ;Montant Achat ;Assurances ;
Date ;ID dossier ;Vendeur ;Nom client ;TO ;Ville Destination ;Ville départ ;Date de départ ;Date de retour ;Montant ;Montant Achat ;Assurances ;
19/02/16 ;1469;Roxana;MODET;Capitales Tours;Osl;Par;2016-06-22;2016-06-29;2376.96;2150.74;0;
Date ;ID dossier ;Vendeur ;Nom client ;TO ;Ville Destination ;Ville départ ;Date de départ ;Date de retour ;Montant ;Montant Achat ;Assurances ;
22/02/16 ;1472;Roxana;SCHMITT;Capitales Tours;Osl;Par;2016-06-22;2016-06-29;2376.96;2150.74;0;
22/02/16 ;1476;Roxana;TATU;Capitales Tours;Osl;Par;2016-08-13;2016-08-20;2376.96;2150.74;0;
Date ;ID dossier ;Vendeur ;Nom client ;TO ;Ville Destination ;Ville départ ;Date de départ ;Date de retour ;Montant ;Montant Achat ;Assurances ;
25/02/16 ;1479;Roxana;QUINCHON;Capitales Tours;Osl;Par;2016-06-22;2016-06-29;2466.96;2150.74;32;
Date ;ID dossier ;Vendeur ;Nom client ;TO ;Ville Destination ;Ville départ ;Date de départ ;Date de retour ;Montant ;Montant Achat ;Assurances ;
Date ;ID dossier ;Vendeur ;Nom client ;TO ;Ville Destination ;Ville départ ;Date de départ ;Date de retour ;Montant ;Montant Achat ;Assurances ;
