Date ;ID dossier ;TO ;Ref facture TO ;Client ;Départ ;Montant ;Montant achat ;Assur ;Marge ; 
05/08/13;419;CCVI;1300403;BATTU;2013-10-26;1388;1200.60;26;161.4;
06/08/13;421;Française des circuits;032589;POULLOT;2013-09-04;2025.6;1833.60;0;192;
06/08/13;423;Pacha tours;327626;LAUNAY;2013-08-30;1945.8;1752.00;0;193.8;
07/08/13;425;Pacha tours;327623;GULDASI;2013-08-25;3271;2912.10;0;358.9;
07/08/13;426;Pacha tours;327624;GULDASI;2013-08-25;2586;2297.40;0;288.6;
08/08/13;429;Promosejour;23080455;PIKON;2013-09-01;1571;1462.20;0;108.8;
09/08/13;432;Pacha tours;;EL MAGHRAOUI;2013-08-28;1372;1257.60;0;114.4;
13/08/13;433;Mondial Tourisme;86941;ACHACHE;2013-08-25;2847;2847.00;0;0;
14/08/13;439;CCVI;1300388;BARRAZA;2013-09-13;1262;1157.60;0;104.4;
15/08/13;441;Fram;177736;BLECON;2013-08-31;1716;1601.06;0;114.94;
16/08/13;445;Pacha tours;327867;ROBINET;2013-09-01;2241;1693.50;0;547.5;
16/08/13;446;Pacha tours;327872;NOTELET;2013-08-26;1672;1507.70;0;164.3;
16/08/13;447;Pacha tours;327874;EL BOUALI;2013-08-28;1734;1574.90;0;159.1;
20/08/13;454;CCVI;1300424;MARTIN;2013-09-23;1094;951.20;20;122.8;
20/08/13;455;Voyamar;94623;MEJDOUB;2013-09-07;680;602.20;13;64.8;
23/08/13;458;Heliades;688219;FOURCADE;2013-09-03;1698;1543.20;0;154.8;
23/08/13;459;Mondial Tourisme;91624;HAMDI;2013-09-01;2637;2406.30;0;230.7;
27/08/13;461;Fram;0184938;BERRA;2013-09-28;816;722.77;0;93.23;
29/08/13;464;Française des circuits;032866;ANGLES;2013-09-24;2102.6;1875.80;0;226.8;
30/08/13;465;Heliades;688790;ROLLAND;2013-09-07;998;913.20;0;84.8;
30/08/13;466;Heliades;602009;BADYNA;2013-09-08;1158;1057.20;0;100.8;
30/08/13;467;CCVI;1300498;RHAZALI;2013-11-01;958;882.40;0;75.6;
