Date ;ID dossier ;TO ;Ref facture TO ;Client ;Départ ;Montant ;Montant achat ;Assur ;Marge ; 
01/10/18;2762;Française des circuits;065954;GAURIER;2019-02-23;2699.1;2502.20;0;196.9;
02/10/18;2763;Amerigo;20183252;SIRIEIX;2018-12-11;3706.76;3401.36;0;305.4;
02/10/18;2764;Climat du monde;080596;FERREIRA;2018-11-15;4219.6;3868.80;0;350.8;
02/10/18;2765;Française des circuits;065996;PAULUS;2019-08-14;3363.5;3107.00;0;256.5;
03/10/18;2766;Capitales Tours;EN ATTENTE DE FACTURE;COURBOT;2019-03-24;7970.36;0.00;0;N/A;
10/10/18;2769;Amerigo;20183336;THOME;2019-01-31;3466;0.00;0;N/A;
10/10/18;2770;Française des circuits;066109;PASQUIER;2019-02-23;4534.6;4153.20;0;381.4;
10/10/18;2771;CircuitDuMonde;F-000803;BROS;2019-02-23;1945.76;1752.96;0;192.8;
10/10/18;2772;Asia;773406;DEMONCEAUX;2018-12-04;2957.5;2755.00;0;202.5;
10/10/18;2774;Capitales Tours;1900347;VIETRI;2019-04-23;3353.43;3050.86;0;302.57;
10/10/18;2775;Capitales Tours;1805107;NOVY;2018-11-25;2412.6;2227.20;0;185.4;
10/10/18;2776;Française des circuits;066180;KUHLMANN;2018-12-07;3988.6;3677.20;0;311.4;
11/10/18;2777;Megavacances;193000;BELLENOUE;2019-02-16;2116;2070.34;0;45.66;
11/10/18;2778;Megavacances;193145;SELTZ;2019-02-16;1058;1035.17;0;22.83;
12/10/18;2779;Française des circuits;066228;INCHELIN;2019-03-30;8361.3;7506.60;90;764.7;
12/10/18;2780;Française des circuits;066218;COURTEILLE;2019-05-27;11312.4;10080.80;100;1131.6;
15/10/18;2781;Travel team;8GAFS009;PIGUET;2018-11-19;2730.8;2360.30;0;370.5;
15/10/18;2782;Megavacances;193388;BELABBES;2018-12-22;2400.04;2250.04;0;150;
15/10/18;2783;CircuitDuMonde;conf;TONDEUR;2019-09-26;10184;0.00;0;N/A;
