Date ;ID dossier ;Nom client ;Montant du payement ;Moyen de réglement ;
02/06/15 ;1139;LEMOINE;405.93;CB_internet_BP;
03/06/15 ;1131;D'ANDREA;510.30;CB_internet_BP;
04/06/15 ;1131;D'ANDREA;200.00;Chèque vacances;
04/06/15 ;1131;D'ANDREA;-226.00;CB_internet_BP;
05/06/15 ;1086;MARTIN;2026.60;CB_internet_BP;
08/06/15 ;1143;GAVRILA;-0.10;Espèces;
08/06/15 ;1143;GAVRILA;255.10;Espèces;
12/06/15 ;1139;LEMOINE;947.17;CB_internet_BP;
17/06/15 ;1083;GAVRILA;1000.00;CB_internet_BP;
17/06/15 ;1083;GAVRILA;472.00;CB_internet_BP;
17/06/15 ;1083;GAVRILA;-472.00;Espèces;
17/06/15 ;1083;GAVRILA;-1000.00;CB_internet_BP;
17/06/15 ;1146;QUINTELIER;818.00;CB_internet_BP;
18/06/15 ;1109;ALLOUCHE;1000.00;Espèces;
23/06/15 ;1149;SOLER;1251.00;CB_internet_BP;
23/06/15 ;1149;SOLER;1251.00;CB_internet_BP;
23/06/15 ;1150;CHIOCCHI;536.10;CB_internet_BP;
25/06/15 ;1150;CHIOCCHI;1250.90;CB_internet_BP;
26/06/15 ;1052;LIGONNET;743.88;CB_internet_BP;
26/06/15 ;1052;LIGONNET;743.87;CB_internet_BP;
29/06/15 ;1153;KEITH;2120.00;CB_internet_BP;
29/06/15 ;1153;KEITH;557.00;CB_internet_BP;
