ID Dossier;Nom;Prénom;Formule;Date d'achat;Prime;Destination;Date départ;Date retour;Total dossier;
1796;MEKEDDEM;Seddik;Presence_multirisques_901-1300;07 / 09 / 16;16.00;PORTUGAL;2016-09-10;2016-09-24;2519.4;
1796;LACQUEMENT LIZE;Marie christine;Presence_multirisques_901-1300;07 / 09 / 16;16.00;PORTUGAL;2016-09-10;2016-09-24;2519.4;
1797;NIOLET;Yves;Presence_annulation_1301-1600;08 / 09 / 16;20.00;EGYPTE;2016-10-29;2016-11-09;2858.6;
1797;ALVARADO;Ana maria;Presence_annulation_1301-1600;08 / 09 / 16;20.00;EGYPTE;2016-10-29;2016-11-09;2858.6;
1800;REYNIER-CHARLES;Jacquy;Presence_annulation_1301-1600;09 / 09 / 16;20.00;VIET NAM;2017-02-15;2017-03-01;3156.8;
1800;VENZIN REYNIER-CHARLES;Guillaumette;Presence_annulation_1301-1600;09 / 09 / 16;20.00;VIET NAM;2017-02-15;2017-03-01;3156.8;
