Date ;ID dossier ;Nom client ;Montant du payement ;Moyen de réglement ;
03/12/15 ;1325;FERREAUX;539.40;CB_internet_BP;
03/12/15 ;1325;FERREAUX;1258.60;CB_internet_BP;
04/12/15 ;1143;GAVRILA;350.00;CB_internet_BP;
15/12/15 ;1308;ZLOTNIK;370.00;CB_internet_BP;
18/12/15 ;1342;JANVIER;322.56;CB_internet_BP;
21/12/15 ;1257;BUGNON;704.60;CB_internet_BP;
28/12/15 ;1342;JANVIER;752.64;CB_internet_BP;
28/12/15 ;1350;ROUSSEAUX;626.40;CB_internet_BP;
28/12/15 ;1353;NOVAKOV;378.34;CB_internet_BP;
29/12/15 ;1143;GAVRILA;375.00;Espèces;
29/12/15 ;1288;MARC;1983.00;CB_internet_BP;
