Date ;ID dossier ;Vendeur ;Nom client ;TO ;Ville Destination ;Ville départ ;Date de départ ;Date de retour ;Montant ;Montant Achat ;Assurances ;
04/04/16 ;1521;Ecall;DERROUICHE MOUNINE;Travel Evasion;Rmf;Par;2016-04-09;2016-04-16;1851.09;1724.99;0;
Date ;ID dossier ;Vendeur ;Nom client ;TO ;Ville Destination ;Ville départ ;Date de départ ;Date de retour ;Montant ;Montant Achat ;Assurances ;
05/04/16 ;1522;Roxana;MARCHAND;Voyamar;Amm;Mrs;2016-04-30;2016-05-07;1485.44;1294.40;20;
Date ;ID dossier ;Vendeur ;Nom client ;TO ;Ville Destination ;Ville départ ;Date de départ ;Date de retour ;Montant ;Montant Achat ;Assurances ;
06/04/16 ;1524;Roxana;LOUDIN;Française des circuits;Amm;Par;2016-04-11;2016-04-18;1355.79;1232.58;16;
06/04/16 ;1525;Roxana;LE DOUARON;Capitales Tours;Jnb;Mrs;2016-11-07;2016-11-17;2916.38;2754.94;0;
Date ;ID dossier ;Vendeur ;Nom client ;TO ;Ville Destination ;Ville départ ;Date de départ ;Date de retour ;Montant ;Montant Achat ;Assurances ;
08/04/16 ;1527;Roxana;MEKBEUL;Jet Tours;Mle;Par;2016-04-25;2016-05-05;4450;3898.31;50;
08/04/16 ;1528;Roxana;FERNANDEZ;Française des circuits;Cpt;Nce;2016-05-04;2016-05-14;3149.6;2919.20;0;
Date ;ID dossier ;Vendeur ;Nom client ;TO ;Ville Destination ;Ville départ ;Date de départ ;Date de retour ;Montant ;Montant Achat ;Assurances ;
Date ;ID dossier ;Vendeur ;Nom client ;TO ;Ville Destination ;Ville départ ;Date de départ ;Date de retour ;Montant ;Montant Achat ;Assurances ;
13/04/16 ;1533;Roxana;LANNES MOIROD;Française des circuits;Mascate;Toulouse;2016-11-27;2016-12-09;5171.4;4641.40;0;
13/04/16 ;1534;Roxana;MAMOD  EP DUBOUX;Visiteurs;Jnb;Par;2016-09-16;2016-09-26;2296.7;2175.20;0;
Date ;ID dossier ;Vendeur ;Nom client ;TO ;Ville Destination ;Ville départ ;Date de départ ;Date de retour ;Montant ;Montant Achat ;Assurances ;
14/04/16 ;1535;Alexandre;PIGUET;FTI;Hrg;Gva;2016-06-28;2016-07-08;2520;2218.40;0;
14/04/16 ;1536;Roxana;ADAM;Visiteurs;Johannesburg;Paris;2016-12-05;2016-12-15;2394.3;2260.80;0;
14/04/16 ;1537;Alexandre;DENORME;Visiteurs;Jnb;Par;2016-09-16;2016-09-26;2366.7;2155.20;32;
14/04/16 ;1540;Roxana;CORFMAT;Visiteurs;Jnb;Par;2016-09-16;2016-09-26;2276.7;2155.20;0;
Date ;ID dossier ;Vendeur ;Nom client ;TO ;Ville Destination ;Ville départ ;Date de départ ;Date de retour ;Montant ;Montant Achat ;Assurances ;
15/04/16 ;1541;Roxana;OVREL;Visiteurs;Jnb;Par;2016-09-16;2016-09-26;2276.7;2155.20;0;
15/04/16 ;1542;Roxana;DUGOUT;Visiteurs;Jnb;Par;2016-12-05;2016-12-15;2394.3;2260.80;0;
15/04/16 ;1543;Roxana;RUIZ PEREZ;Visiteurs;Jnb;Par;2016-09-16;2016-09-26;2276.7;2155.20;0;
15/04/16 ;1544;Roxana;PHILIPPART;Visiteurs;Jnb;Par;2016-09-16;2016-09-26;2308.7;2155.20;16;
15/04/16 ;1545;Roxana;ADAM;Visiteurs;Johannesburg;Paris;2016-12-05;2016-12-15;1383.15;1306.40;0;
Date ;ID dossier ;Vendeur ;Nom client ;TO ;Ville Destination ;Ville départ ;Date de départ ;Date de retour ;Montant ;Montant Achat ;Assurances ;
18/04/16 ;1546;Roxana;HAMEL;Visiteurs;Jnb;Par;2016-09-16;2016-09-26;1384.35;1273.60;20;
18/04/16 ;1548;Roxana;COTERET;Visiteurs;Jnb;Par;2016-12-05;2016-12-15;2394.3;2260.80;0;
18/04/16 ;1549;Roxana;PAUTONNIER;Visiteurs;Jnb;Par;2016-12-05;2016-12-15;2458.3;2260.80;32;
18/04/16 ;1550;Roxana;GRANJARD;Visiteurs;Jnb;Nce;2016-11-14;2016-11-24;1562.15;1424.40;20;
18/04/16 ;1551;Roxana;ROBERTO;Visiteurs;Jnb;Par;2016-11-14;2016-11-27;2588.75;2444.00;0;
18/04/16 ;1552;Alexandre;BERNARD;Visiteurs;Jnb;Par;2016-09-16;2016-09-26;2276.7;2155.20;0;
18/04/16 ;1554;Alexandre;IANDOLO;Capitales Tours;Jnb;Mrs;2016-11-07;2016-11-17;2916.38;2754.94;0;
Date ;ID dossier ;Vendeur ;Nom client ;TO ;Ville Destination ;Ville départ ;Date de départ ;Date de retour ;Montant ;Montant Achat ;Assurances ;
19/04/16 ;1555;Alexandre;CARUDEL;Visiteurs;Jnb;Par;2016-09-16;2016-09-26;1185;1095.50;0;
19/04/16 ;1557;Alexandre;WEINGAERTNER;Visiteurs;Jnb;Par;2016-12-05;2016-12-15;2458.3;2260.80;32;
Date ;ID dossier ;Vendeur ;Nom client ;TO ;Ville Destination ;Ville départ ;Date de départ ;Date de retour ;Montant ;Montant Achat ;Assurances ;
21/04/16 ;1558;Roxana;LEBAS;Visiteurs;Johannesburg;Paris;2016-09-16;2016-09-26;2340.7;2155.20;32;
21/04/16 ;1559;Ecall;FADALE;Visiteurs;Jnb;Par;2016-09-16;2016-09-26;3526.95;3232.80;48;
21/04/16 ;1560;Alexandre;DURUPT;Visiteurs;Jnb;Par;2016-11-14;2016-11-24;2394.3;2260.80;0;
21/04/16 ;1561;Roxana;DELCHIDRE;Visiteurs;Johannesburg;Nice paris;2017-01-10;2017-01-20;2613.3;2466.80;0;
21/04/16 ;1562;Roxana;HADET JAN;Visiteurs;Johannesburg;Nice;2017-01-10;2017-01-20;1368.65;0.00;0;
Date ;ID dossier ;Vendeur ;Nom client ;TO ;Ville Destination ;Ville départ ;Date de départ ;Date de retour ;Montant ;Montant Achat ;Assurances ;
22/04/16 ;1564;Roxana;CAMUS;Visiteurs;Johannesburg;Paris;2016-11-14;2016-11-24;1197.15;0.00;0;
22/04/16 ;1565;Roxana;GINEL;Visiteurs;Johannesburg;Paris;2016-11-14;2016-11-24;2394.3;2260.80;0;
22/04/16 ;1566;Alexandre;LANDRO;Visiteurs;Jnb;Mrs;2016-11-14;2016-11-24;2648.3;2496.80;0;
22/04/16 ;1567;Alexandre;HAMCHIN EP BUZON;Visiteurs;Jnb;Par;2016-12-05;2016-12-15;2484.3;2260.80;32;
Date ;ID dossier ;Vendeur ;Nom client ;TO ;Ville Destination ;Ville départ ;Date de départ ;Date de retour ;Montant ;Montant Achat ;Assurances ;
25/04/16 ;1568;Ecall;KUGLER;Visiteurs;Jnb;Par;2017-01-10;2017-01-20;1482.65;1350.40;20;
25/04/16 ;1569;Roxana;BROUSSAUD;Visiteurs;Jnb;Par;2017-01-10;2017-01-20;1430.65;1350.40;0;
25/04/16 ;1570;Alexandre;PUJO;Visiteurs;Jnb;Bod;2016-12-05;2016-12-15;1510.15;1424.40;0;
Date ;ID dossier ;Vendeur ;Nom client ;TO ;Ville Destination ;Ville départ ;Date de départ ;Date de retour ;Montant ;Montant Achat ;Assurances ;
26/04/16 ;1572;Ecall;HAERTY LUDMANN;Visiteurs;Jnb;Par;2017-01-10;2017-01-20;2521.3;2348.80;16;
26/04/16 ;1573;Alexandre;MILLIER;Française des circuits;Tel aviv;Nice;2016-09-04;2016-09-18;2873.85;2510.35;33;
Date ;ID dossier ;Vendeur ;Nom client ;TO ;Ville Destination ;Ville départ ;Date de départ ;Date de retour ;Montant ;Montant Achat ;Assurances ;
Date ;ID dossier ;Vendeur ;Nom client ;TO ;Ville Destination ;Ville départ ;Date de départ ;Date de retour ;Montant ;Montant Achat ;Assurances ;
28/04/16 ;1576;Ecall;ZERAFA;Capitales Tours;Del;Par;2016-09-03;2016-09-14;2155.98;2029.74;0;
28/04/16 ;1578;Alexandre;GRASLIN;Visiteurs;Jnb;Par;2016-12-05;2016-12-15;1383.15;1306.40;0;
28/04/16 ;1579;Alexandre;BUZON VEUVE CURUTCHET;Visiteurs;Jnb;Par;2016-12-05;2016-12-15;1435.15;1306.40;20;
Date ;ID dossier ;Vendeur ;Nom client ;TO ;Ville Destination ;Ville départ ;Date de départ ;Date de retour ;Montant ;Montant Achat ;Assurances ;
29/04/16 ;1581;Alexandre;EL KORNO;Voyamar;Mex;Par;2016-05-25;2016-06-05;1979.3;1819.90;0;
29/04/16 ;1582;Alexandre;MORIN;Visiteurs;Tnr;Par;2016-08-13;2016-08-29;6857.9;5997.90;80;
