Date ;ID dossier ;Nom client ;Montant du payement ;Moyen de réglement ;
01/08/16 ;1399;DEFREL;193.58;CB_internet_BP;
01/08/16 ;1481;SAHALA;3194.52;CB_internet_BP;
01/08/16 ;1730;BINDA;1000.00;CB_internet_BP;
01/08/16 ;1730;BINDA;1720.00;CB_internet_BP;
01/08/16 ;1731;BACQUET;481.80;CB_internet_BP;
01/08/16 ;1734;BARDIN;1628.55;CB_internet_BP;
02/08/16 ;1735;LEBEAUX;844.13;CB_internet_BP;
02/08/16 ;1735;LEBEAUX;361.77;CB_internet_BP;
02/08/16 ;1737;BENTARA;689.00;CB_internet_BP;
02/08/16 ;1737;BENTARA;689.00;CB_internet_BP;
02/08/16 ;1739;MORIN;697.80;CB_internet_BP;
02/08/16 ;1740;SAHNOUN;1000.00;CB_internet_BP;
02/08/16 ;1741;HAUSWIRTH;652.86;CB_internet_BP;
02/08/16 ;1742;OSTER;931.26;CB_internet_BP;
03/08/16 ;1591;DELPHIN;1685.67;CB_internet_BP;
03/08/16 ;1630;METZLER;999.60;Virement bancaire;
03/08/16 ;1630;METZLER;23.00;CB_internet_BP;
03/08/16 ;1630;METZLER;2532.40;CB_internet_BP;
03/08/16 ;1630;METZLER;1000.00;Espèces;
03/08/16 ;1630;METZLER;-23.00;CB_internet_BP;
03/08/16 ;1740;SAHNOUN;4123.90;Virement bancaire;
03/08/16 ;1745;ESSAIDI;38.00;CB_internet_BP;
03/08/16 ;1745;ESSAIDI;1616.00;CB_internet_BP;
03/08/16 ;1747;CRAMPON;3775.55;CB_internet_BP;
03/08/16 ;1747;CRAMPON;2000.00;CB_internet_BP;
03/08/16 ;1747;CRAMPON;2993.45;CB_internet_BP;
03/08/16 ;1747;CRAMPON;1775.55;CB_internet_BP;
03/08/16 ;1747;CRAMPON;1000.00;CB_internet_BP;
03/08/16 ;1748;MORIN;931.80;CB_internet_BP;
03/08/16 ;1749;MORIN;465.90;CB_internet_BP;
03/08/16 ;1749;MORIN;465.90;CB_internet_BP;
04/08/16 ;1361;LAHET;1228.02;CB_internet_BP;
04/08/16 ;1466;CLAVERIE;135.00;CB_internet_BP;
04/08/16 ;1573;MILLIER;511.70;CB_internet_BP;
04/08/16 ;1586;GAVRILA;7000.00;CB_internet_BP;
04/08/16 ;1586;GAVRILA;2200.00;Chèque;
04/08/16 ;1599;GUILLOT;1925.57;CB_internet_BP;
04/08/16 ;1653;MAZUR;88.39;CB_internet_BP;
04/08/16 ;1653;MAZUR;-220.00;CB_internet_BP;
05/08/16 ;1360;JOUNIAUX MARTIN;1088.02;CB_internet_BP;
05/08/16 ;1363;BORIES;641.31;CB_internet_BP;
05/08/16 ;1363;BORIES;641.31;CB_internet_BP;
05/08/16 ;1364;ERIPRET;1088.02;CB_internet_BP;
05/08/16 ;1376;GEOFFROY;666.16;CB_internet_BP;
05/08/16 ;1376;GEOFFROY;666.16;CB_internet_BP;
05/08/16 ;1586;GAVRILA;-9200.00;CB_internet_BP;
05/08/16 ;1753;BHANGROOP;1177.67;CB_internet_BP;
05/08/16 ;1754;ANDLAUER;1602.00;CB_internet_BP;
08/08/16 ;1356;HORBACZ;558.16;CB_internet_BP;
08/08/16 ;1356;HORBACZ;-15.00;CB_internet_BP;
08/08/16 ;1356;HORBACZ;-30.00;CB_internet_BP;
08/08/16 ;1356;HORBACZ;558.16;CB_internet_BP;
08/08/16 ;1356;HORBACZ;1117.32;CB_internet_BP;
08/08/16 ;1356;HORBACZ;-15.00;CB_internet_BP;
08/08/16 ;1358;GOURGOUDOU;1088.02;CB_internet_BP;
08/08/16 ;1359;TRAN;1088.02;CB_internet_BP;
08/08/16 ;1576;ZERAFA;754.59;CB_internet_BP;
08/08/16 ;1605;VERON;1224.34;CB_internet_BP;
09/08/16 ;1388;TORCHOT;2303.84;CB_internet_BP;
09/08/16 ;1576;ZERAFA;754.59;CB_internet_BP;
09/08/16 ;1622;PERVYCHINE;1958.38;CB_internet_BP;
10/08/16 ;1607;LAURIERE;6390.37;CB_internet_BP;
10/08/16 ;1760;DOUCET;1030.20;CB_internet_BP;
10/08/16 ;1761;DOUCET;1049.50;CB_internet_BP;
10/08/16 ;1762;RENARD;829.40;CB_internet_BP;
12/08/16 ;1506;CHAPONIC;-4547.00;CB_internet_BP;
12/08/16 ;1506;CHAPONIC;1573.00;Virement bancaire;
12/08/16 ;1506;CHAPONIC;4547.00;CB_internet_BP;
12/08/16 ;1506;CHAPONIC;2974.00;Virement bancaire;
12/08/16 ;1765;CHARTIER;763.95;CB_internet_BP;
12/08/16 ;1765;CHARTIER;1782.55;CB_internet_BP;
12/08/16 ;1767;ROUSSEL;1172.34;CB_internet_BP;
12/08/16 ;1767;ROUSSEL;1172.34;CB_internet_BP;
16/08/16 ;1534;MAMOD  EP DUBOUX;1607.69;CB_internet_BP;
16/08/16 ;1537;DENORME;1656.69;CB_internet_BP;
16/08/16 ;1541;OVREL;1593.69;CB_internet_BP;
16/08/16 ;1543;RUIZ PEREZ;1593.69;CB_internet_BP;
16/08/16 ;1544;PHILIPPART;1593.69;CB_internet_BP;
16/08/16 ;1544;PHILIPPART;32.00;CB_internet_BP;
16/08/16 ;1555;CARUDEL;787.70;CB_internet_BP;
16/08/16 ;1558;LEBAS;1638.49;CB_internet_BP;
16/08/16 ;1719;BASS;1061.20;CB_internet_BP;
16/08/16 ;1768;DEFRANCE;1626.84;CB_internet_BP;
16/08/16 ;1768;DEFRANCE;1626.84;CB_internet_BP;
16/08/16 ;1768;DEFRANCE;-1626.84;CB_internet_BP;
16/08/16 ;1769;MONTAGNAC;826.38;CB_internet_BP;
17/08/16 ;1544;PHILIPPART;-32.00;CB_internet_BP;
17/08/16 ;1559;FADALE;1943.95;CB_internet_BP;
18/08/16 ;1540;CORFMAT;1593.69;CB_internet_BP;
18/08/16 ;1771;PERRIN;1615.32;CB_internet_BP;
19/08/16 ;1546;HAMEL;969.05;Chèque;
19/08/16 ;1663;LELONG;926.75;CB_internet_BP;
19/08/16 ;1772;POITEVIN;482.21;CB_internet_BP;
19/08/16 ;1772;POITEVIN;1070.79;CB_internet_BP;
19/08/16 ;1773;DUCLAUX;960.29;CB_internet_BP;
24/08/16 ;1478;BACQUET;2898.47;CB_internet_BP;
24/08/16 ;1678;BARAT;829.50;CB_internet_BP;
24/08/16 ;1714;PROVENZANO;3088.68;CB_internet_BP;
24/08/16 ;1715;WELLENREITER;3088.68;CB_internet_BP;
24/08/16 ;1771;PERRIN;3769.08;CB_internet_BP;
25/08/16 ;1646;BRIEUC;1800.84;CB_internet_BP;
25/08/16 ;1647;DELVINCOURT;1873.69;CB_internet_BP;
25/08/16 ;1648;THIBAULT;526.37;CB_internet_BP;
25/08/16 ;1648;THIBAULT;1416.32;CB_internet_BP;
25/08/16 ;1648;THIBAULT;36.00;CB_internet_BP;
25/08/16 ;1650;SERVIERE;880.18;CB_internet_BP;
25/08/16 ;1651;ROSENBERGER;1389.60;CB_internet_BP;
25/08/16 ;1652;TURQUIN;1716.89;CB_internet_BP;
25/08/16 ;1657;MADEUF GALZIN;1300.15;CB_internet_BP;
25/08/16 ;1676;STOMBOLI;864.58;CB_internet_BP;
25/08/16 ;1694;SIMON;985.78;CB_internet_BP;
25/08/16 ;1775;LAFENETRE;923.04;CB_internet_BP;
26/08/16 ;1602;LUCAS;1023.62;CB_internet_BP;
26/08/16 ;1606;BERNACCHIA;2886.80;CB_internet_BP;
26/08/16 ;1658;SELOSSE;1448.00;CB_internet_BP;
29/08/16 ;1593;GAUTIER;1991.14;CB_internet_BP;
29/08/16 ;1635;REYNAUD;1867.95;CB_internet_BP;
29/08/16 ;1663;LELONG;926.75;Chèque;
29/08/16 ;1711;LACROZE;1069.60;CB_internet_BP;
29/08/16 ;1780;DESIR;838.00;CB_internet_BP;
29/08/16 ;1781;KAPUSCINSKI;814.97;CB_internet_BP;
30/08/16 ;1626;LEROY;4420.30;Chèque;
30/08/16 ;1725;CHARLIER;1721.90;CB_internet_BP;
31/08/16 ;1783;MORIN;4393.00;CB_internet_BP;
31/08/16 ;1784;FRIHA;1005.82;CB_internet_BP;
31/08/16 ;1785;ARAFAH;976.00;CB_internet_BP;
31/08/16 ;1786;GEORGES;1138.00;CB_internet_BP;
31/08/16 ;1787;PAGES;1485.00;CB_internet_BP;
31/08/16 ;1788;ESPERANCE;1000.00;CB_internet_BP;
31/08/16 ;1789;BARICOS;4823.60;CB_internet_BP;
