Date ;ID dossier ;TO ;Ref facture TO ;Client ;Départ ;Montant ;Montant achat ;Assur ;Marge ; 
02/12/15;1322;Megavacances;71023;BOCCARELLI;2016-02-02;3484;3139.42;50;294.58;
03/12/15;1323;Française des circuits;045958;ARNAUD;2016-04-02;2896.8;2690.70;0;206.1;
03/12/15;1324;Capitales Tours;1600776;SCHMITT;2016-03-25;3956.18;3652.34;0;303.84;
04/12/15;1326;Visiteurs;045973;MATHIEU;2016-01-27;10056.8;8855.50;0;1201.3;
07/12/15;1327;Jet Tours;2016 0000012086;PERNOT;2015-12-20;998;913.80;0;84.2;
10/12/15;1329;Climat du monde;046953;DEBRABANT;2016-02-03;3173.3;2813.04;40;320.26;
11/12/15;1330;FTI;60848584;MORINEAU;2016-01-30;1858;1561.60;26;270.4;
11/12/15;1332;Travel Evasion;055246;LESIMPLE;2016-12-26;2953;2659.70;0;293.3;
11/12/15;1333;Climat du monde;046986;CADET;2016-05-25;2820.78;2513.84;40;266.94;
15/12/15;1334;Capitales Tours;1600942;POGU;2016-03-25;4865.72;4570.36;0;295.36;
15/12/15;1335;Capitales Tours;1600943;SNIEG;2016-03-25;4865.72;4570.36;0;295.36;
15/12/15;1336;Climat du monde;047038;CANET;2016-03-23;3069.32;2813.04;0;256.28;
15/12/15;1338;Climat du monde;047057;SORIN;2016-05-25;2820.76;2513.84;40;266.92;
15/12/15;1339;Climat du monde;047055;ZION;2016-05-25;2716.76;2513.84;0;202.92;
15/12/15;1340;Climat du monde;047051;BARK;2016-05-25;2716.76;2513.84;0;202.92;
18/12/15;1341;Capitales Tours;1600986;NIANANE;2016-05-16;4350;4023.84;0;326.16;
18/12/15;1343;Française des circuits;046175;DUCAROUGE;2016-01-27;2982.8;2696.80;0;286;
21/12/15;1344;Promosejour;25122118;FOUSSISSI;2015-12-31;2548;2286.20;32;229.8;
21/12/15;1345;Heliades;735250;MORANI;2016-01-07;5125.12;4707.41;66;351.71;
21/12/15;1346;Voyamar;205274;BANULS;2016-05-06;6605.76;6082.60;0;523.16;
21/12/15;1347;Capitales Tours;1601011;MEILLON;2016-02-25;2970.98;2804.74;0;166.24;
22/12/15;1348;Française des circuits;046211;NARDIN;2016-02-25;3218;2931.50;0;286.5;
28/12/15;1351;Française des circuits;046244;DELL'AGNOLO;2016-03-05;6865.6;6354.40;0;511.2;
28/12/15;1354;Megavacances;82523;KOCH;2016-04-16;9554;8733.55;0;820.45;
30/12/15;1355;Jet Tours;conf.;FAUSTINO;2016-08-20;4680;4344.46;0;335.54;
30/12/15;1356;Climat du monde;047392;HORBACZ;2016-09-13;3108.64;2977.60;0;131.04;
30/12/15;1357;Heliades;735591;DENIS;2016-01-08;1570.44;1482.81;0;87.63;
30/12/15;1358;Climat du monde;047394;GOURGOUDOU;2016-09-17;1674.32;1590.80;0;83.52;
31/12/15;1359;Climat du monde;047412;TRAN;2016-09-13;1554.32;1488.80;0;65.52;
31/12/15;1360;Climat du monde;047413;JOUNIAUX MARTIN;2016-09-13;1554.32;1488.80;0;65.52;
31/12/15;1361;Climat du monde;047418;LAHET;2016-09-13;1754.32;1670.80;0;83.52;
