Date ;ID dossier ;Vendeur ;Nom client ;TO ;Ville Destination ;Ville départ ;Date de départ ;Date de retour ;Montant ;Montant Achat ;Assurances ;
02/11/15 ;1294;Houda;CLAIRE;Française des circuits;San jose;Paris;2015-12-05;2015-12-15;6723.6;6065.70;0;
02/11/15 ;1295;Roxana;MALLET;Française des circuits;Del;Lys;2016-03-14;2016-03-23;1240.6;1111.90;16;
Date ;ID dossier ;Vendeur ;Nom client ;TO ;Ville Destination ;Ville départ ;Date de départ ;Date de retour ;Montant ;Montant Achat ;Assurances ;
03/11/15 ;1293;Roxana;VOBORE;Capitales Tours;Sgn;Par;2016-03-11;2016-03-25;3224.74;2999.62;0;
Date ;ID dossier ;Vendeur ;Nom client ;TO ;Ville Destination ;Ville départ ;Date de départ ;Date de retour ;Montant ;Montant Achat ;Assurances ;
06/11/15 ;1298;Roxana;ALLIO USAGE VILLEGAS;Capitales Tours;Jnb;Mrs;2016-02-15;2016-02-25;3227.58;3040.54;0;
06/11/15 ;1299;Houda;CHAPONIC;;New york;Paris;2016-05-03;2016-05-08;3299;3205.88;0;
Date ;ID dossier ;Vendeur ;Nom client ;TO ;Ville Destination ;Ville départ ;Date de départ ;Date de retour ;Montant ;Montant Achat ;Assurances ;
09/11/15 ;1301;Roxana;SOURDAIS-BELLAKHDAR;Visiteurs;Bog;Paris;2016-02-06;2016-02-21;7730.2;7016.20;0;
09/11/15 ;1302;Roxana;TOUBOUL;Capitales Tours;Han;Par;2015-12-04;2015-12-18;3752.98;3378.74;50;
09/11/15 ;1303;Roxana;AHIYAD;FTI;Aga;Par;2015-11-16;2015-11-21;569;500.90;0;
Date ;ID dossier ;Vendeur ;Nom client ;TO ;Ville Destination ;Ville départ ;Date de départ ;Date de retour ;Montant ;Montant Achat ;Assurances ;
Date ;ID dossier ;Vendeur ;Nom client ;TO ;Ville Destination ;Ville départ ;Date de départ ;Date de retour ;Montant ;Montant Achat ;Assurances ;
13/11/15 ;1307;Roxana;GRONDIN;Heliades;Sid;Par;2015-11-27;2015-12-04;1816.06;1716.59;0;
Date ;ID dossier ;Vendeur ;Nom client ;TO ;Ville Destination ;Ville départ ;Date de départ ;Date de retour ;Montant ;Montant Achat ;Assurances ;
16/11/15 ;1309;Roxana;MARTIN;Visiteurs;Del;Par;2016-03-20;2016-03-29;2183.3;2066.30;0;
16/11/15 ;1310;Roxana;HOAREAU;Capitales Tours;Lim;Par;2016-05-11;2016-05-21;4408.08;4097.04;0;
16/11/15 ;1311;Roxana;LUCAS;Capitales Tours;Lim;Par;2016-05-11;2016-05-21;4408.08;4097.04;0;
Date ;ID dossier ;Vendeur ;Nom client ;TO ;Ville Destination ;Ville départ ;Date de départ ;Date de retour ;Montant ;Montant Achat ;Assurances ;
19/11/15 ;1312;Roxana;LAPLUIE;Capitales Tours;Lax;Par;2016-05-09;2016-05-22;3535.38;3252.14;0;
Date ;ID dossier ;Vendeur ;Nom client ;TO ;Ville Destination ;Ville départ ;Date de départ ;Date de retour ;Montant ;Montant Achat ;Assurances ;
20/11/15 ;1313;Houda;CHAPONIC;;Rak;Par;2015-12-21;2015-12-27;2781;0.00;0;
20/11/15 ;1314;Ecall;TROESTER;Française des circuits;Lca;Lys;2015-12-03;2015-12-10;2942.8;2612.65;39;
Date ;ID dossier ;Vendeur ;Nom client ;TO ;Ville Destination ;Ville départ ;Date de départ ;Date de retour ;Montant ;Montant Achat ;Assurances ;
23/11/15 ;1315;Roxana;ANDRE;Visiteurs;Syd;Par;2016-03-17;2016-03-30;7201.6;6589.60;0;
Date ;ID dossier ;Vendeur ;Nom client ;TO ;Ville Destination ;Ville départ ;Date de départ ;Date de retour ;Montant ;Montant Achat ;Assurances ;
24/11/15 ;1316;Roxana;SAVARY;Française des circuits;Lpq;Par;2016-04-14;2016-04-29;2534.8;2269.20;25;
24/11/15 ;1317;Roxana;JOUAN;Capitales Tours;Lax;Par;2016-04-18;2016-05-01;3497.38;3252.14;0;
24/11/15 ;1318;Roxana;CHASTANET;Capitales Tours;Lax;Par;2016-04-18;2016-05-01;2139.08;1982.14;0;
24/11/15 ;1319;Roxana;TIBERGHIEN;Capitales Tours;Lax;Par;2016-04-18;2016-05-01;3497.38;3252.14;0;
Date ;ID dossier ;Vendeur ;Nom client ;TO ;Ville Destination ;Ville départ ;Date de départ ;Date de retour ;Montant ;Montant Achat ;Assurances ;
25/11/15 ;1320;Roxana;CHRISTIEN;;Lax;Par;2016-05-02;2016-05-15;7326.76;6504.28;100;
25/11/15 ;1321;Houda;CABIROU;Capitales Tours;Hanoi;Par;2016-03-11;2016-03-25;3190;2999.62;0;
