Date ;ID dossier ;Nom client ;Montant du payement ;Moyen de réglement ;
01/07/16 ;1355;FAUSTINO;1110.00;Chèque vacances;
01/07/16 ;1355;FAUSTINO;2170.00;Espèces;
01/07/16 ;1676;STOMBOLI;473.77;CB_internet_BP;
04/07/16 ;1596;MORIN LEMIERE;3400.25;CB_internet_BP;
04/07/16 ;1627;ALEMANNO;5243.00;CB_internet_BP;
05/07/16 ;1623;EL GHAOUZI;1200.00;Chèque vacances;
05/07/16 ;1623;EL GHAOUZI;-494.82;CB_internet_BP;
05/07/16 ;1678;BARAT;355.50;CB_internet_BP;
06/07/16 ;1679;DE PINHO;755.23;CB_internet_BP;
06/07/16 ;1679;DE PINHO;755.23;CB_internet_BP;
06/07/16 ;1681;CUNY;3000.00;CB_internet_BP;
06/07/16 ;1682;COPPARD;2420.70;CB_internet_BP;
06/07/16 ;1683;MAILLARD;1098.00;CB_internet_BP;
07/07/16 ;1582;MORIN;2388.95;Chèque;
07/07/16 ;1582;MORIN;2355.58;Chèque;
07/07/16 ;1683;MAILLARD;325.90;CB_internet_BP;
07/07/16 ;1683;MAILLARD;460.00;Chèque vacances;
07/07/16 ;1683;MAILLARD;-772.10;CB_internet_BP;
07/07/16 ;1684;HEBREU;1203.02;CB_internet_BP;
07/07/16 ;1685;FABRE;1408.79;CB_internet_BP;
08/07/16 ;1681;CUNY;3859.80;CB_internet_BP;
08/07/16 ;1687;BLANC;746.68;CB_internet_BP;
08/07/16 ;1688;LAUSSEL;817.24;CB_internet_BP;
11/07/16 ;1573;MILLIER;500.00;CB_internet_BP;
11/07/16 ;1582;MORIN;80.00;CB_internet_BP;
11/07/16 ;1684;HEBREU;1203.01;Chèque;
11/07/16 ;1689;BARGNER;716.61;CB_internet_BP;
11/07/16 ;1692;SAGHI;1705.56;CB_internet_BP;
12/07/16 ;1693;BANTEGNIE;459.25;CB_internet_BP;
12/07/16 ;1694;SIMON;422.47;CB_internet_BP;
12/07/16 ;1695;BOUAFIA;1315.00;CB_internet_BP;
13/07/16 ;1688;LAUSSEL;2024.91;Chèque;
13/07/16 ;1699;DELRIEU;833.87;CB_internet_BP;
13/07/16 ;1701;KIRIK;563.07;CB_internet_BP;
13/07/16 ;1701;KIRIK;563.06;CB_internet_BP;
13/07/16 ;1703;HARBI;1873.20;CB_internet_BP;
15/07/16 ;1552;BERNARD;1593.69;Virement bancaire;
15/07/16 ;1630;METZLER;3000.00;CB_internet_BP;
15/07/16 ;1704;WATHLE;1516.00;CB_internet_BP;
15/07/16 ;1705;FABRE MARTIN;689.40;CB_internet_BP;
18/07/16 ;1671;DEPOUX;690.00;CB_internet_BP;
18/07/16 ;1692;SAGHI;0.40;CB_internet_BP;
18/07/16 ;1692;SAGHI;3979.24;CB_internet_BP;
18/07/16 ;1706;BACHET;411.09;CB_internet_BP;
19/07/16 ;1708;LEVAVASSEUR;3000.00;CB_internet_BP;
19/07/16 ;1708;LEVAVASSEUR;5942.00;Virement bancaire;
19/07/16 ;1709;BILLARD;3162.24;CB_internet_BP;
19/07/16 ;1710;CLAMARON;470.40;CB_internet_BP;
19/07/16 ;1711;LACROZE;229.20;CB_internet_BP;
19/07/16 ;1711;LACROZE;229.20;CB_internet_BP;
19/07/16 ;1712;PIGNY;2746.97;CB_internet_BP;
20/07/16 ;1703;HARBI;4370.83;Virement bancaire;
20/07/16 ;1703;HARBI;-0.03;CB_internet_BP;
20/07/16 ;1714;PROVENZANO;1323.72;CB_internet_BP;
20/07/16 ;1715;WELLENREITER;1323.72;CB_internet_BP;
21/07/16 ;1558;LEBAS;702.21;CB_internet_BP;
21/07/16 ;1558;LEBAS;-702.21;CB_internet_BP;
21/07/16 ;1716;LE  VAILLANT;962.00;CB_internet_BP;
22/07/16 ;1367;HENON;370.86;CB_internet_BP;
22/07/16 ;1719;BASS;454.80;CB_internet_BP;
25/07/16 ;1721;CASSUTO;412.78;CB_internet_BP;
25/07/16 ;1723;SALAHUN;478.20;CB_internet_BP;
26/07/16 ;1721;CASSUTO;2339.07;CB_internet_BP;
26/07/16 ;1725;CHARLIER;695.10;CB_internet_BP;
27/07/16 ;1623;EL GHAOUZI;560.00;Chèque vacances;
27/07/16 ;1623;EL GHAOUZI;-546.27;CB_internet_BP;
28/07/16 ;1726;STELL;898.00;CB_internet_BP;
29/07/16 ;1727;WERLE;454.80;CB_internet_BP;
29/07/16 ;1728;LE ROUX;478.20;CB_internet_BP;
29/07/16 ;1729;ASTIER;478.20;CB_internet_BP;
