Date ;ID dossier ;TO ;Ref facture TO ;Client ;Départ ;Montant ;Montant achat ;Assur ;Marge ; 
02/02/15;1019;Française des circuits;041516;GARZIANO;2015-05-25;4801.8;4237.10;50;514.7;
02/02/15;1020;Française des circuits;041517;LAGREE;2015-03-30;3176;2885.00;0;291;
02/02/15;1021;Travel Evasion;052110;DE OLIVEIRA;2015-02-28;2548.15;2352.22;0;195.93;
02/02/15;1022;Française des circuits;041538;BOJIC;2015-04-20;3181.6;2849.90;40;291.7;
03/02/15;1023;Promosejour;25020290;HA;2015-02-15;2742;2446.20;40;255.8;
04/02/15;1025;Visiteurs;040239;BOURGY;2015-04-03;6621.2;6033.00;40;548.2;
04/02/15;1026;Capitales Tours;1501832;COIGNEC;2015-04-29;2687.6;2498.80;0;188.8;
04/02/15;1027;FTI;60829437;DELRUE;2015-02-26;1754;1518.40;26;209.6;
04/02/15;1029;Capitales Tours;1501863;SCHOLTES    GAILLARDOU;2015-04-25;3302.66;2932.58;40;330.08;
05/02/15;1030;FTI;60829607;BESNARD;2015-04-21;1651;1390.60;26;234.4;
05/02/15;1031;Française des circuits;041670;MAHIEUX;2015-11-20;4569.6;4156.60;0;413;
05/02/15;1033;Capitales Tours;1501889;INNOCENTI;2015-05-20;14621.12;13146.56;200;1274.56;
06/02/15;1036;Visiteurs;040263;CURBERA;2015-05-22;2950.6;2663.01;0;287.59;
06/02/15;1037;Française des circuits;041724;VALENTIN;2015-11-20;4569.6;4156.60;0;413;
09/02/15;1038;FTI;60829878;CHEMOUL;2015-02-27;1978;1790.20;0;187.8;
09/02/15;1040;Capitales Tours;1501958;CUVIER;2015-03-25;3821.36;3561.74;0;259.62;
10/02/15;1043;Française des circuits;041804;BEN MHENNI;2015-03-06;1450.4;1303.40;0;147;
16/02/15;1047;Voyamar;160938;D ANDREA;2015-04-10;5018.72;4684.80;0;333.92;
17/02/15;1048;Visiteurs;0400558;ROMANO FINA;2015-06-11;3144.2;2925.50;0;218.7;
17/02/15;1049;Visiteurs;040560;LATGE;2015-11-21;3385.8;2945.50;50;390.3;
18/02/15;1051;Française des circuits;042018;AVEAU;2015-05-15;4930.8;4484.20;0;446.6;
20/02/15;1053;Capitales Tours;1503735;LESCAUDRON;2015-08-24;10153.24;9032.62;0;1120.62;
24/02/15;1054;Capitales Tours;1502347;DEHAINE;2015-06-19;2099.58;1976.54;0;123.04;
24/02/15;1055;Voyamar;162486;DAGNICOURT;2015-06-22;8908;7298.00;100;1510;
24/02/15;1056;Capitales Tours;1502346;MERINDOL;2015-06-19;2099.58;1976.54;0;123.04;
26/02/15;1058;FTI;60832290;MAGRO;2015-03-19;1418;1216.00;26;176;
26/02/15;1059;FTI;60832291;MEGHZEL;2015-03-15;1060;964.00;0;96;
